{
  "count": 20,
  "next": "http://ec2-18-197-149-25.eu-central-1.compute.amazonaws.com/attractions_nearby/?format=json&page=2",
  "previous": null,
  "results": [
    {
      "source": "GoogleMaps",
      "name": "New Museum",
      "address": "235 Bowery, New York",
      "location_lon": -73.9928905,
      "location_lat": 40.7223376,
      "tags": "[\"tourist_attraction\", \"museum\", \"point_of_interest\", \"establishment\"]",
      "rating": "4.1",
      "number_of_reviews": "1901",
      "main_photo_url": "https://www.sustainability-times.com/wp-content/uploads/thumbs/Tourism-371emzvml7493dphpq91xc.jpg"
    },
    {
      "source": "GoogleMaps",
      "name": "The Mercury Lounge",
      "address": "217 East Houston Street, New York",
      "location_lon": -73.9867459,
      "location_lat": 40.7221676,
      "tags": "[\"night_club\", \"tourist_attraction\", \"bar\", \"point_of_interest\", \"establishment\"]",
      "rating": "4.4",
      "number_of_reviews": "837",
      "main_photo_url": "https://www.sustainability-times.com/wp-content/uploads/thumbs/Tourism-371emzvml7493dphpq91xc.jpg"
    },
    {
      "source": "GoogleMaps",
      "name": "Tenement Museum",
      "address": "103 Orchard Street, New York",
      "location_lon": -73.99006969999999,
      "location_lat": 40.7187958,
      "tags": "[\"tourist_attraction\", \"museum\", \"point_of_interest\", \"establishment\"]",
      "rating": "4.6",
      "number_of_reviews": "3146",
      "main_photo_url": "https://www.sustainability-times.com/wp-content/uploads/thumbs/Tourism-371emzvml7493dphpq91xc.jpg"
    },
    {
      "source": "GoogleMaps",
      "name": "Anthology Film Archives",
      "address": "32 2nd Avenue, New York",
      "location_lon": -73.99016569999999,
      "location_lat": 40.7246939,
      "tags": "[\"movie_theater\", \"tourist_attraction\", \"museum\", \"point_of_interest\", \"establishment\"]",
      "rating": "4.5",
      "number_of_reviews": "190",
      "main_photo_url": "https://www.sustainability-times.com/wp-content/uploads/thumbs/Tourism-371emzvml7493dphpq91xc.jpg"
    },
    {
      "source": "GoogleMaps",
      "name": "Essex Market",
      "address": "88 Essex Street, New York",
      "location_lon": -73.9880633,
      "location_lat": 40.7180754,
      "tags": "[\"tourist_attraction\", \"grocery_or_supermarket\", \"restaurant\", \"food\", \"point_of_interest\", \"store\", \"establishment\"]",
      "rating": "4.5",
      "number_of_reviews": "2396",
      "main_photo_url": "https://www.sustainability-times.com/wp-content/uploads/thumbs/Tourism-371emzvml7493dphpq91xc.jpg"
    },
    {
      "source": "GoogleMaps",
      "name": "Angel Orensanz Foundation",
      "address": "172 Norfolk Street, New York",
      "location_lon": -73.9857196,
      "location_lat": 40.7211655,
      "tags": "[\"synagogue\", \"tourist_attraction\", \"place_of_worship\", \"point_of_interest\", \"establishment\"]",
      "rating": "4.7",
      "number_of_reviews": "211",
      "main_photo_url": "https://www.sustainability-times.com/wp-content/uploads/thumbs/Tourism-371emzvml7493dphpq91xc.jpg"
    },
    {
      "source": "GoogleMaps",
      "name": "The Basilica of St. Patrick's Old Cathedral",
      "address": "263 Mulberry Street, New York",
      "location_lon": -73.9949063,
      "location_lat": 40.7235616,
      "tags": "[\"tourist_attraction\", \"church\", \"place_of_worship\", \"point_of_interest\", \"establishment\"]",
      "rating": "4.7",
      "number_of_reviews": "859",
      "main_photo_url": "https://www.sustainability-times.com/wp-content/uploads/thumbs/Tourism-371emzvml7493dphpq91xc.jpg"
    },
    {
      "source": "GoogleMaps",
      "name": "Museum of Chinese in America",
      "address": "215 Centre Street, New York",
      "location_lon": -73.9990565,
      "location_lat": 40.7194036,
      "tags": "[\"tourist_attraction\", \"museum\", \"point_of_interest\", \"store\", \"establishment\"]",
      "rating": "4.4",
      "number_of_reviews": "674",
      "main_photo_url": "https://www.sustainability-times.com/wp-content/uploads/thumbs/Tourism-371emzvml7493dphpq91xc.jpg"
    },
    {
      "source": "GoogleMaps",
      "name": "Museum at Eldridge Street",
      "address": "12 Eldridge Street, New York",
      "location_lon": -73.99355609999999,
      "location_lat": 40.7147484,
      "tags": "[\"tourist_attraction\", \"museum\", \"point_of_interest\", \"establishment\"]",
      "rating": "4.6",
      "number_of_reviews": "503",
      "main_photo_url": "https://www.sustainability-times.com/wp-content/uploads/thumbs/Tourism-371emzvml7493dphpq91xc.jpg"
    },
    {
      "source": "GoogleMaps",
      "name": "Storefront for Art and Architecture",
      "address": "97 Kenmare Street, New York",
      "location_lon": -73.9970709,
      "location_lat": 40.7214782,
      "tags": "[\"art_gallery\", \"tourist_attraction\", \"point_of_interest\", \"establishment\"]",
      "rating": "4.4",
      "number_of_reviews": "49",
      "main_photo_url": "https://www.sustainability-times.com/wp-content/uploads/thumbs/Tourism-371emzvml7493dphpq91xc.jpg"
    }
  ]
}
